{
  "id": "content",
  "name": "內容管理",
  "desc": "管理網站內容",
  "permission": {
    "copyright": {
      "name": "版權說明管理",
      "desc": "完全控制版權說明模組",
      "permission": {
        "m": ["copyright"]
      }
    },
    "catalogVideo": {
      "name": "影片分類管理",
      "desc": "完全控制影片分類模組",
      "permission": {
        "m": ["catalogVideo"]
      }
    },
    "catalogSound": {
      "name": "聲音分類管理",
      "desc": "完全控制聲音分類模組",
      "permission": {
        "m": ["catalogSound"]
      }
    },
    "catalogPicture": {
      "name": "照片分類管理",
      "desc": "完全控制照片分類模組",
      "permission": {
        "m": ["catalogPicture"]
      }
    },
	"sound": {
      "name": "音樂專輯管理",
      "desc": "完全控制音樂專輯模組",
      "permission": {
        "m": ["sound", "soundAlbum"]
      }
    },
    "video": {
      "name": "多媒體檔案管理",
      "desc": "完全控制多媒體檔案模組",
      "permission": {
        "m": ["video"]
      }
    },
    "carousel": {
      "name": "影片輪播",
      "desc": "影片輪播設定",
      "permission": {
        "mr": [
          ["subject", "video_carousel"],
          ["subject", "video_list"],
          ["video", "pop_list"]
        ]
      }
    },
    "adBanners": {
      "name": "廣告管理",
      "desc": "完全控制廣告模組",
      "permission": {
        "m": ["adBanners"]
      }
    },
    "subject": {
      "name": "熱門主題管理",
      "desc": "完全控制熱門主題模組",
      "permission": {
        "mr": [
          ["subject", "default"],
          ["subject", "list"],
          ["subject", "add"],
          ["subject", "edit"],
          ["subject", "remove"],
          ["subject", "video_list"],
          ["video", "pop_list"]
        ]
      }
    },
    "keyword": {
      "name": "關鍵字管理",
      "desc": "完全控制關鍵字模組",
      "permission": {
        "m": ["keyword"]
      }
    },
    "link": {
      "name": "友站連結管理",
      "desc": "完全控制友站連結模組",
      "permission": {
        "m": ["link"],
        "mrp": [
          ["option", "list", "folder", "1"],
          ["option", "add", "folder", "1"],
          ["option", "edit", "folder", "1"]
        ]
      }
    },
    "question": {
      "name": "常見問題管理",
      "desc": "完全控制常見問題模組",
      "permission": {
        "m": ["question"],
        "mrp": [
          ["option", "list", "folder", "2"],
          ["option", "add", "folder", "2"],
          ["option", "edit", "folder", "2"]
        ]
      }
    },
	"news": {
      "name": "最新消息管理",
      "desc": "完全控制最新消息模組",
      "permission": {
        "m": ["news"],
        "mrp": [
          ["option", "list", "folder", "3"],
          ["option", "add", "folder", "3"],
          ["option", "edit", "folder", "3"]
        ]
      }
    },
    "contact": {
      "name": "連絡我們管理",
      "desc": "完全控制連絡我們模組",
      "permission": {
        "m": ["contact"]
      }
    }
	
	
  }
}